…
``` r
table1 <- merge(simulation,analytic,by=0)
table1$Row.names <- as.numeric(table1$Row.names)   
table1 <- arrange(table1,Row.names)
table1 <- table1 %>%
  pivot_longer(c(`simulation`, `analytic`), names_to = "solution", values_to = "proba")
table1 %>%
  group_by(solution) #%>%
```

    ## # A tibble: 160 × 3
    ## # Groups:   solution [2]
    ##    Row.names solution     proba
    ##        <dbl> <chr>        <dbl>
    ##  1         1 simulation 0      
    ##  2         1 analytic   0      
    ##  3         2 simulation 0.01   
    ##  4         2 analytic   0.00274
    ##  5         3 simulation 0.01   
    ##  6         3 analytic   0.00820
    ##  7         4 simulation 0.02   
    ##  8         4 analytic   0.0164 
    ##  9         5 simulation 0.02   
    ## 10         5 analytic   0.0271 
    ## # … with 150 more rows
…
